%YAML 1.1
%TAG !u! tag:unity3d.com,2011:
--- !u!1045 &1
EditorBuildSettings:
  m_ObjectHideFlags: 0
  serializedVersion: 2
  m_Scenes:
  - enabled: 1
    path: Assets/Scenes/edits.unity
    guid: 743f7ed4c4fb24747ac7c93d241ca79b
  m_configObjects:
    UnityEditor.XR.ARCore.ARCoreSettings: {fileID: 11400000, guid: 3d3b0d6c84fc0f64fae72177c9b473f6, type: 2}
    com.unity.xr.arfoundation.simulation_settings: {fileID: 11400000, guid: d3619771624cb4e4d8202a753e2bbd79, type: 2}
    com.unity.xr.management.loader_settings: {fileID: 11400000, guid: 785a1732c0135bf44bea7a05468a1b1e, type: 2}
